{
 "actions": [],
 "creation": "2021-04-03 18:07:21.937420",
 "doctype": "DocType",
 "editable_grid": 1,
 "engine": "InnoDB",
 "field_order": [
  "id"
 ],
 "fields": [
  {
   "fieldname": "id",
   "fieldtype": "Data",
   "label": "Id"
  }
 ],
 "index_web_pages_for_search": 1,
 "links": [],
 "modified": "2021-04-05 09:21:57.109700",
 "modified_by": "Administrator",
 "module": "Demo",
 "name": "Lab Id Master",
 "owner": "Administrator",
 "permissions": [
  {
   "create": 1,
   "delete": 1,
   "email": 1,
   "export": 1,
   "print": 1,
   "read": 1,
   "report": 1,
   "role": "System Manager",
   "share": 1,
   "write": 1
  }
 ],
 "sort_field": "modified",
 "sort_order": "DESC",
 "track_changes": 1
}